<?xml version="1.0" encoding="utf-8"?>

<svg version="1.1" id="Layer_1" xmlns="http://www.w3.org/2000/svg" xmlns:xlink="http://www.w3.org/1999/xlink" x="0px" y="0px"
	 viewBox="0 0 71 71" style="enable-background:new 0 0 71 71;" xml:space="preserve">
   <style media="screen">
     svg{
       height: 240px;
       width: 450px;
       background: url("kilic_logo.png") no-repeat;
       background-size: contain;
     }</style>
     <rect id="blue-rectangle" width="15" height="100%" x="0" y="0" fill="rgba(255,255,255,0.5)" transform="skewX(-5)"></rect>
     <animate
            xlink:href="#blue-rectangle"
            attributeName="x"
            from="-150"
            to="1800"
            dur="8s"
            begin="0s"
            repeatCount="indefinite"
            fill="freeze"
            id="rect-anim"/>
</svg>
